c2
8a
0
0
c2
8a
0
0
c2
8a
0
0
c2
8a
0
0
c2
d
c9
ef
c2
e
84
20
c2
8a
0
0
c2
8a
0
0
c1
e8
8c
1b
c2
8a
0
0
c2
8a
0
0
c1
ed
88
73
c2
8a
0
0
c2
8a
0
0
c1
fa
9b
4d
c2
8a
0
0
c2
8a
0
0
c2
3a
28
1a
c1
f5
8c
90
c2
8a
0
0
c2
8a
0
0
c2
8a
0
0
c2
8a
0
0
c2
5
b0
fd
c2
8a
0
0
c2
10
98
21
c1
e6
ee
cb
c2
8a
0
0
c2
8a
0
0
c2
8a
0
0
c2
14
2a
f
c1
da
a4
ef
c2
8a
0
0
c2
e
39
78
c2
c
5c
2e
c1
c8
d1
e
c1
f6
d3
6f
c2
9
56
51
c2
8a
0
0
c1
da
55
dd
c2
d
11
57
c2
8a
0
0
c1
ea
d7
d4
c2
8a
0
0
c2
8a
0
0
c1
f3
58
e4
c2
18
62
36
c2
8a
0
0
c1
e2
74
64
c2
8a
0
0
c1
d0
9a
1
c2
d
36
15
c1
fb
c5
70
c2
8a
0
0
c1
e8
10
66
c1
df
51
a7
c2
8a
0
0
c2
8a
0
0
c1
d6
c0
d7
c1
ff
cf
5
c2
8a
0
0
c2
8a
0
0
c2
9
6e
22
c2
8a
0
0
c1
f6
d1
cf
c2
8a
0
0
c2
8a
0
0
c1
df
1d
a8
c2
8a
0
0
c2
8a
0
0
c1
f5
b9
58
c1
c5
9a
3d
c1
f9
7d
9a
c1
d8
88
f4
c1
e9
16
10
c2
8a
0
0
c1
df
d1
56
c1
d8
ba
76
c2
8a
0
0
c2
8a
0
0
c2
8a
0
0
c2
8a
0
0
c1
f9
b0
d6
c1
fc
ac
21
c2
8a
0
0
c1
eb
d1
40
c2
8a
0
0
c2
8a
0
0
c2
8a
0
0
c2
8a
0
0
c2
8a
0
0
c1
c5
a6
4b
c1
f2
3f
7
c2
10
c6
1c
c1
cf
1e
e2
c1
c8
2d
b9
c1
e6
d8
c6
c1
d2
1a
74
c2
8a
0
0
c2
8a
0
0
c1
e1
c0
26
c2
82
1f
ef
c2
0
d3
1f
c2
8a
0
0
c1
de
29
1a
c1
e9
70
31
c1
ea
cd
d1
c2
0
6b
e2
c1
eb
41
3c
c1
e9
e6
e6
c2
8a
0
0
c1
fa
7e
e9
c1
df
73
59
c1
db
98
26
c2
0
a0
bf
c1
e6
1a
63
c1
f9
50
1b
c2
15
fe
57
c2
8a
0
0
c1
ed
9f
ea
c2
8a
0
0
c2
8a
0
0
c2
8a
0
0
c2
8a
0
0
c2
8a
0
0
c2
8a
0
0
c2
12
12
8a
c2
8a
0
0
c2
1
4d
76
c2
8a
0
0
c1
f9
da
21
c2
8a
0
0
c2
8a
0
0
c1
f9
71
90
c2
4
8f
bf
c1
e3
8f
78
c2
8a
0
0
c2
8a
0
0
c2
8a
0
0
c1
de
20
46
c2
8a
0
0
c2
6
2c
a8
c2
8a
0
0
c2
8a
0
0
c2
8a
0
0
c1
f3
fe
34
c1
fe
8d
ac
c2
5
b9
f4
c1
d3
95
46
c2
8a
0
0
c1
fb
aa
b8
c2
8a
0
0
c2
8a
0
0
c2
2
1f
45
c2
8a
0
0
c2
1f
99
e9
c2
f
5e
c2
c1
e4
ce
ac
c1
e8
f7
2d
c2
8a
0
0
c2
8a
0
0
c1
f3
d3
cc
c2
8a
0
0
c1
fb
40
5
c2
20
80
4c
c2
8a
0
0
c1
f8
8e
2f
c2
8a
0
0
c1
e5
3b
7a
c2
6
28
16
c2
3
6
db
c1
e1
4f
c0
c1
fd
49
c
c1
d5
5e
e4
c2
3c
9
d3
c2
8a
0
0
c1
d7
4d
cb
c1
fc
18
7b
c2
8a
0
0
c2
8a
0
0
c2
8a
0
0
c2
8a
0
0
c2
8a
0
0
c1
e3
63
88
c1
f0
16
3
c2
8a
0
0
c2
8a
0
0
c1
d0
ca
13
c2
8a
0
0
c2
8
68
e9
c2
e
bf
c2
c1
ef
35
2b
c2
8a
0
0
c1
c6
73
6a
c2
8a
0
0
c2
8a
0
0
c2
8a
0
0
c2
8a
0
0
c2
8a
0
0
c1
e8
da
39
c2
8a
0
0
c1
e5
c4
7f
c1
f1
1d
4c
c2
8a
0
0
c2
8a
0
0
c1
e4
cd
b2
c2
8a
0
0
c2
58
1a
47
c2
0
8e
d8
c2
8a
0
0
c1
f6
4b
5
c1
e3
dc
4f
c1
dc
d1
7c
c2
8a
0
0
c2
32
43
ab
c2
8a
0
0
c2
8a
0
0
c1
f8
2a
2e
c2
8a
0
0
c1
f7
67
f3
c2
8a
0
0
c2
8a
0
0
c2
8a
0
0
c2
8a
0
0
c1
cc
b1
8e
c2
1c
fe
df
c2
8a
0
0
c2
8a
0
0
c2
8a
0
0
c2
8a
0
0
c2
8a
0
0
c2
8a
0
0
c1
f9
67
e1
c2
8a
0
0
c2
8a
0
0
c2
c
2f
5c
c2
4
c7
8c
c2
8a
0
0
c2
8a
0
0
c2
8a
0
0
c2
8a
0
0
c1
e7
3
a4
c2
8a
0
0
c2
7
e0
8
c1
de
f9
e
c1
de
a1
cd
c2
8a
0
0
c1
d3
e0
29
c2
5
62
f9
c1
d1
4c
da
c2
8a
0
0
c1
ff
f0
19
c1
f5
e0
44
c2
3f
e1
67
c2
8a
0
0
c1
fe
c9
76
c2
8a
0
0
c1
e2
60
b4
c2
8a
0
0
c1
d3
fe
b0
c2
8a
0
0
c2
8a
0
0
c2
6
e7
c8
c2
a
6a
4a
c1
e6
ee
ed
c1
be
96
46
c1
a1
5
d4
c1
96
41
9d
c1
8d
25
cc
c1
7c
c3
b5
c1
67
b9
dd
c1
57
d4
fe
c1
46
6c
2
c1
41
41
d4
c1
38
5d
ff
c1
38
13
d4
c1
34
54
8c
c1
2e
f2
fe
c1
2e
d3
9
c1
2d
5
41
c1
2c
1e
6d
c1
2b
1f
dc
c1
2b
76
21
c1
2a
93
58
c1
2a
99
ce
c1
29
ee
df
c1
2b
65
af
c1
2c
4e
4e
c1
29
80
3f
c1
29
c
d6
c1
2b
89
ab
c1
2b
52
ba
c1
2a
4a
d0
c1
2a
82
56
c1
2a
1d
1d
c1
28
87
79
c1
29
6f
33
c1
2a
54
b1
c1
29
db
ba
c1
29
1d
d2
c1
2a
23
28
c1
2a
52
f
c1
2b
3
49
c1
2c
c8
5f
c1
2a
ae
84
c1
2a
eb
ba
c1
28
dd
e8
c1
2a
17
6b
c1
2a
43
b6
c1
29
68
8e
c1
2a
d3
e2
c1
29
15
50
c1
2b
0
8d
c1
28
a9
4d
c1
29
56
bb
c1
29
44
fe
c1
2a
1c
5
c1
2a
4a
59
c1
27
c
c3
c1
27
9b
b6
c1
2b
5a
76
c1
2a
a5
8e
c1
29
d7
46
c1
29
e8
d3
c1
29
84
41
c1
29
19
dc
c1
2a
8f
a
c1
29
d4
dc
c1
28
2c
30
c1
28
ef
95
c1
2b
60
28
c1
28
39
a
c1
2a
7d
85
c1
2b
3d
73
c1
29
b6
c
c1
29
19
25
c1
2a
70
89
c1
2b
29
43
c1
29
85
54
c1
29
76
a6
c1
26
fb
a7
c1
2b
c5
f
c1
2a
da
36
c1
28
9c
b1
c1
29
c
24
c1
29
15
bc
c1
2b
6e
b3
c1
29
e9
9b
c1
28
b8
10
c1
28
77
31
c1
29
c6
e5
c1
27
39
ac
c1
29
58
66
c1
27
ed
6f
c1
29
ac
d8
c1
2a
b0
aa
c1
29
44
ac
c1
2a
9d
c9
c1
2b
25
42
c1
2a
da
ca
c1
2b
89
51
c1
2b
61
89
c1
2a
73
b
c1
29
ea
2
c1
2a
84
e7
c1
2a
b4
16
c1
28
4f
a1
c1
27
f8
59
c1
28
b9
78
c1
2b
a2
67
c1
2b
6b
fe
c1
28
c8
a5
c1
28
aa
6e
c1
28
1c
6b
c1
27
a0
a1
c1
29
ce
c2
c1
2a
e2
7d
c1
28
5a
87
c1
29
20
61
c1
2b
2e
6f
c1
29
ff
ce
c1
29
51
6f
c1
2a
3c
95
c1
2a
35
95
c1
29
43
95
c1
2a
b1
f9
c1
2a
50
f9
c1
27
a8
5a
c1
29
9a
3
c1
2a
cf
1e
c1
2a
19
61
c1
29
a
61
c1
29
58
70
c1
28
5a
c8
c1
28
c6
be
c1
28
7a
6f
c1
2b
1b
16
c1
29
47
27
c1
28
86
35
c1
27
fc
e7
c1
2a
db
bf
c1
29
2d
8b
c1
29
1c
f1
c1
2b
e
b
c1
2a
2c
2b
c1
27
a1
c
c1
28
24
69
c1
2b
7f
de
c1
2b
b0
6c
c1
2a
66
db
c1
28
7f
d8
c1
2b
16
30
c1
2a
7a
6f
c1
28
ff
62
c1
28
f8
ba
c1
2b
52
5d
c1
2b
3e
37
c1
28
25
c3
c1
29
b1
8d
c1
2a
93
86
c1
29
a5
af
c1
28
bc
29
c1
29
af
52
c1
28
1e
79
c1
27
d3
fc
c1
29
75
60
c1
2a
ae
75
c1
28
b9
2b
c1
2a
1d
cb
c1
2a
f3
83
c1
2c
14
cc
c1
28
b3
50
c1
29
42
af
c1
2a
ef
3d
c1
28
fb
89
c1
28
c8
48
c1
29
1a
de
c1
29
2
c4
c1
2a
6
26
c1
29
38
e0
c1
28
7b
ce
c1
27
61
eb
c1
2b
26
f8
c1
27
59
d6
c1
28
36
a5
c1
28
35
95
c1
27
bb
dc
c1
28
ef
2
c1
2b
3f
1c
c1
2b
b2
f6
c1
2a
97
ef
c1
29
e1
dc
c1
28
32
6c
c1
2a
b9
21
c1
27
ac
e0
c1
2b
42
88
c1
28
23
59
c1
28
de
8
c1
2c
3
f5
c1
27
dc
a6
c1
28
39
97
c1
2a
61
73
c1
28
a7
eb
c1
29
95
f6
c1
29
f9
87
c1
2a
75
34
c1
29
fd
59
c1
2a
fd
d9
c1
26
74
12
c1
2b
24
48
c1
28
e9
f2
c1
29
85
64
c1
28
fd
59
c1
28
56
89
c1
28
6c
1
c1
2a
33
7f
c1
2a
97
9b
c1
29
ef
12
c1
2a
d9
7
c1
29
e8
cf
c1
28
c1
8a
c1
2a
41
34
c1
2a
92
a6
c1
2a
35
ac
c1
28
cc
f1
c1
2b
b5
80
c1
29
dd
7b
c1
29
4e
ee
c1
2a
20
34
c1
2a
f7
d4
c1
2b
46
22
c1
28
c8
4f
c1
2b
2f
f2
c1
29
a1
61
c1
29
eb
a8
c1
2a
5
a9
c1
28
1a
d5
c1
29
7c
fb
c1
2a
65
85
c1
2b
4c
d3
c1
2a
5a
27
