c1
f7
4d
13
c2
8a
0
0
c2
8a
0
0
c2
8a
0
0
c2
8a
0
0
c1
ed
dc
87
c2
8a
0
0
c2
8a
0
0
c2
d
8b
ea
c1
dc
d1
9f
c1
e8
7e
2f
c2
8a
0
0
c1
d9
36
cd
c1
d1
15
38
c1
e5
e1
64
c1
e0
55
1b
c1
e8
9c
df
c2
8a
0
0
c1
f7
5a
bd
c2
9
df
a3
c2
8a
0
0
c1
d3
ff
ec
c1
db
51
c7
c2
8a
0
0
c2
8a
0
0
c2
8a
0
0
c2
8a
0
0
c2
16
b5
fc
c2
8a
0
0
c2
8a
0
0
c1
e8
7
b5
c1
d8
bb
8e
c2
8a
0
0
c2
2d
1e
31
c1
da
28
ff
c2
9
98
35
c2
c
5f
81
c2
1b
6f
ab
c2
21
c3
89
c2
8a
0
0
c1
f2
6f
c1
c1
db
c7
ea
c2
8a
0
0
c2
8a
0
0
c2
8a
0
0
c1
e7
52
9a
c1
c4
93
58
c1
f2
ed
d6
c2
8a
0
0
c2
8a
0
0
c2
8a
0
0
c1
d7
d8
57
c1
c2
a1
9a
c1
dd
2d
26
c2
2
50
88
c1
ea
9c
95
c1
fd
4c
9b
c1
ef
25
5e
c1
c8
b8
cc
c1
d2
32
8d
c2
8a
0
0
c1
e1
e
e1
c1
e4
1e
7f
c2
1
cb
47
c2
32
32
d0
c2
8a
0
0
c2
8a
0
0
c2
1c
c0
e0
c2
8a
0
0
c2
8a
0
0
c2
8a
0
0
c1
f9
4e
f2
c2
11
f8
1b
c1
fd
ea
0
c2
0
c
5c
c2
8a
0
0
c2
8a
0
0
c2
3
48
6d
c2
8a
0
0
c2
8a
0
0
c1
fb
d1
a1
c2
8a
0
0
c2
8a
0
0
c1
f1
b0
13
c2
1
98
d7
c2
8a
0
0
c2
8a
0
0
c1
ea
7b
c3
c2
8a
0
0
c2
8a
0
0
c2
8
33
ba
c2
8a
0
0
c2
8a
0
0
c1
d8
b6
64
c1
f2
76
ed
c2
c
8f
1
c2
8a
0
0
c2
1
72
2f
c1
f9
78
7
c1
e6
a7
2f
c2
0
f8
a
c2
8a
0
0
c2
8a
0
0
c2
8a
0
0
c2
8a
0
0
c2
8a
0
0
c2
10
a2
19
c2
8a
0
0
c2
8a
0
0
c1
f4
21
d2
c2
21
9e
de
c2
8a
0
0
c1
e7
b
90
c2
8a
0
0
c2
8a
0
0
c1
e7
b1
7c
c2
8a
0
0
c2
12
72
ce
c1
eb
7f
d4
c2
8a
0
0
c2
8a
0
0
c1
f3
ac
93
c2
e
ba
de
c1
f3
be
f
c2
1f
a1
db
c2
8a
0
0
c2
d
68
d3
c2
8a
0
0
c2
c
a1
3a
c2
8a
0
0
c2
8a
0
0
c2
8a
0
0
c2
8a
0
0
c1
e7
a5
59
c1
e5
97
9
c1
db
a2
9
c1
e5
32
ff
c2
8a
0
0
c2
8a
0
0
c2
44
d1
90
c1
ef
dd
96
c1
e2
c4
f4
c2
8a
0
0
c2
8a
0
0
c2
8a
0
0
c1
d4
42
37
c1
da
ec
3a
c2
3
77
cf
c2
8a
0
0
c1
fb
3d
c7
c2
4
3b
df
c2
8a
0
0
c1
d9
de
91
c1
ed
cd
d6
c2
c
df
55
c2
8a
0
0
c1
ed
43
fc
c2
2
8e
9c
c2
8a
0
0
c2
8a
0
0
c2
8a
0
0
c2
8a
0
0
c2
8a
0
0
c2
1
78
e3
c2
7
77
35
c2
8a
0
0
c2
8a
0
0
c2
20
47
c5
c2
8a
0
0
c1
db
e0
4
c1
ea
5c
63
c1
e4
9b
91
c1
f4
a7
f9
c2
8a
0
0
c2
8a
0
0
c2
10
d6
49
c2
5
68
73
c2
17
e7
a5
c2
9
83
b
c2
10
62
1c
c2
8a
0
0
c2
5
48
37
c1
ed
ce
ea
c2
8a
0
0
c1
f3
17
21
c1
fb
4f
b3
c2
0
b7
86
c2
8a
0
0
c2
8a
0
0
c2
8a
0
0
c2
8a
0
0
c1
f2
e2
ae
c1
d7
8b
66
c2
8a
0
0
c2
8a
0
0
c2
8a
0
0
c2
8a
0
0
c2
8a
0
0
c1
ed
76
6c
c1
ec
77
1b
c1
e9
8
5d
c2
9
67
e6
c1
ea
c6
88
c1
df
b3
8e
c2
8a
0
0
c2
8a
0
0
c2
8a
0
0
c1
e8
77
41
c1
d8
d7
e1
c2
7
1
97
c2
8a
0
0
c1
e7
53
ee
c2
1a
81
3b
c2
15
8b
19
c1
e3
df
98
c1
d6
94
b
c2
1
8f
c9
c2
8a
0
0
c2
4
21
76
c2
3e
d6
83
c2
1c
dc
a6
c1
de
25
c3
c1
cc
d2
20
c2
8a
0
0
c2
8a
0
0
c2
a
a7
b1
c1
e9
b8
de
c1
e6
6d
49
c2
8a
0
0
c2
8a
0
0
c2
2
f4
9a
c2
8a
0
0
c2
8a
0
0
c2
8a
0
0
c2
8a
0
0
c1
d3
8f
bb
c1
d9
13
17
c2
b
9
90
c1
ef
e6
78
c1
f3
b3
cb
c2
8a
0
0
c2
8a
0
0
c1
fe
0
88
c2
3
2
84
c2
8a
0
0
c2
8a
0
0
c2
8a
0
0
c1
fa
2
6d
c1
e9
6d
f0
c2
8a
0
0
c2
8a
0
0
c1
d7
d
3f
c1
e7
24
f8
c2
12
c3
10
c1
fb
39
d3
c1
f9
db
ff
c2
8a
0
0
c1
eb
a8
38
c2
2
ff
9
c1
e2
fb
93
c1
ce
e7
e1
c1
da
e0
45
c1
e2
77
24
c2
12
a6
1d
c1
dd
13
9a
c1
d3
50
eb
c1
ce
21
b8
c1
c0
ce
d9
c1
b9
f2
b1
c1
a7
cd
1a
c1
96
f5
7b
c1
8e
85
ce
c1
86
21
58
c1
74
bf
8a
c1
63
f3
3d
c1
55
20
1b
c1
4a
54
f4
c1
42
f4
c1
c1
3d
9f
d0
c1
39
50
7f
c1
35
1c
d4
c1
31
60
23
c1
30
aa
9a
c1
2e
f9
37
c1
2e
16
29
c1
2e
6b
3e
c1
2d
3c
e0
c1
2c
39
e6
c1
2c
ed
50
c1
2c
86
4
c1
2b
c0
5
c1
2c
55
38
c1
2b
93
ed
c1
2b
5a
12
c1
2a
c2
5d
c1
2a
bf
a4
c1
2c
b3
f7
c1
2d
8a
e6
c1
2b
1c
a9
c1
29
3d
43
c1
2b
18
88
c1
2b
24
89
c1
2a
5c
87
c1
2c
c
76
c1
2b
ac
6d
c1
2a
f5
2e
c1
2b
48
16
c1
29
d5
47
c1
2a
11
35
c1
2a
61
93
c1
2b
49
fd
c1
2b
32
61
c1
2b
4
d4
c1
2b
a8
cd
c1
2b
85
9
c1
2b
ad
e5
c1
2a
a
44
c1
2a
6e
e4
c1
2c
4c
b1
c1
2b
c4
df
c1
29
cf
f
c1
29
1e
3b
c1
2a
d4
af
c1
29
ce
c6
c1
2a
84
b9
c1
2a
b8
c4
c1
2a
ff
66
c1
2b
ef
2e
c1
2a
f
48
c1
29
ac
cd
c1
29
c4
46
c1
2b
47
17
c1
2b
b9
a7
c1
2a
79
27
c1
2a
e
23
c1
29
e8
ac
c1
2a
53
fa
c1
29
ec
41
c1
2b
c9
49
c1
2c
65
3f
c1
2a
31
4c
c1
29
bd
e1
c1
29
7b
1d
c1
29
f2
f6
c1
2a
81
be
c1
28
43
99
c1
28
c9
e7
c1
2a
9e
24
c1
2a
cd
9a
c1
2a
dd
88
c1
2a
1c
4c
c1
29
30
ab
c1
29
20
1b
c1
29
e8
e
c1
2c
a9
f4
c1
2d
2e
eb
c1
2b
77
99
c1
2a
69
1a
c1
2a
23
a3
c1
29
f9
d1
c1
29
50
f6
c1
2a
78
1e
c1
2b
42
bf
c1
2a
91
af
c1
2b
2e
e8
c1
2b
f5
c6
c1
2a
9e
b7
c1
2a
77
59
c1
29
83
51
c1
29
97
97
c1
2a
71
59
c1
29
be
ba
c1
2a
7f
db
c1
2a
9f
5
c1
29
a
cd
c1
2a
8d
9f
c1
2b
97
df
c1
2a
7c
cd
c1
2b
bc
4e
c1
2b
8f
56
c1
2a
de
d1
c1
29
59
a0
c1
2a
b
ad
c1
2b
31
be
c1
2a
55
99
c1
29
fe
4e
c1
2b
e8
17
c1
2b
80
b8
c1
2b
98
56
c1
29
e8
e3
c1
26
fa
3e
c1
29
4c
b0
c1
2b
1e
e8
c1
2a
1
52
c1
2b
e0
3f
c1
2c
98
c
c1
29
e2
35
c1
29
c3
26
c1
2a
b7
ee
c1
2b
10
0
c1
2b
94
d1
c1
2a
f1
50
c1
29
98
34
c1
27
a8
26
c1
28
ae
fc
c1
2b
56
d0
c1
2b
6f
e9
c1
29
ad
ea
c1
2b
57
0
c1
2b
76
75
c1
2a
61
33
c1
29
70
47
c1
29
14
61
c1
28
c8
40
c1
2a
23
72
c1
2a
e7
cd
c1
29
d2
33
c1
27
ec
9c
c1
29
54
ef
c1
2a
8b
c6
c1
29
7a
e2
c1
2a
32
b0
c1
29
b3
e5
c1
29
17
21
c1
2a
39
e5
c1
2a
bb
a9
c1
29
ad
b3
c1
29
71
b9
c1
2a
6d
10
c1
2b
d1
55
c1
2a
d1
37
c1
2a
83
44
c1
2a
80
42
c1
2a
8e
c
c1
29
9f
1d
c1
28
bd
5f
c1
2b
ab
91
c1
2b
9d
7a
c1
2a
1b
a2
c1
2a
f9
4b
c1
29
ae
18
c1
29
a0
d
c1
29
a2
81
c1
2a
36
4d
c1
2a
c0
3
c1
29
83
e1
c1
2b
32
4b
c1
2a
d9
c0
c1
2a
c1
fc
c1
2a
cd
46
c1
2c
39
a
c1
2b
ba
d2
c1
2a
33
a0
c1
2a
7a
49
c1
2a
7c
56
c1
2b
a1
8
c1
2a
dc
5e
c1
2a
ee
a8
c1
29
cd
cc
c1
28
31
95
c1
29
c7
9e
c1
2a
42
86
c1
29
94
8d
c1
2a
3a
98
c1
2b
80
61
c1
2a
6f
ee
c1
29
cb
8d
c1
2a
9e
95
c1
2c
29
46
c1
2a
42
ef
c1
29
68
b0
c1
2a
8d
a0
c1
2a
1e
4b
c1
29
f
c
c1
29
2
e5
c1
2b
16
11
c1
2b
47
10
c1
2b
23
3d
c1
29
f1
6
c1
29
83
ad
c1
2a
a0
5b
c1
29
e0
9a
c1
29
3c
48
c1
29
f5
87
c1
2a
ea
26
c1
2b
76
5
c1
29
71
34
c1
28
4c
4b
c1
29
d
c7
c1
2a
b3
16
c1
2b
4e
5
c1
29
1f
94
c1
29
2b
63
c1
2b
9a
dd
c1
2b
5b
5c
c1
29
95
c8
c1
29
d5
5e
c1
2b
1b
b1
c1
2b
11
91
c1
2b
57
9c
c1
2a
d9
34
