40
17
d2
ae
c1
e8
0
0
c1
e8
0
0
41
6c
4e
a9
41
27
a6
a9
c1
e8
0
0
c1
e8
0
0
c1
e8
0
0
c1
e8
0
0
c1
e8
0
0
c1
e8
0
0
c1
e8
0
0
c1
e8
0
0
41
31
a1
3e
41
4c
e3
7d
c1
e8
0
0
c1
32
c5
ad
c1
e8
0
0
41
5b
43
cf
c1
e8
0
0
c1
e8
0
0
c1
e8
0
0
c1
e8
0
0
c1
e8
0
0
c1
e8
0
0
41
48
82
90
c1
e8
0
0
c1
e8
0
0
41
49
79
cc
40
da
9c
34
40
fe
c5
59
c1
e8
0
0
c1
e8
0
0
41
56
71
79
c1
e8
0
0
41
5c
16
5e
41
28
b9
e0
41
2e
53
8e
c1
e8
0
0
41
6a
8
f1
41
6d
62
fc
41
25
b8
c
c1
e8
0
0
41
66
b4
a7
41
4f
75
e5
41
60
e2
be
c1
e8
0
0
41
26
52
2f
c1
e8
0
0
c1
e8
0
0
c1
e8
0
0
c1
e8
0
0
c1
e8
0
0
c1
e8
0
0
c1
e8
0
0
c1
e8
0
0
c1
e8
0
0
40
c9
5f
25
41
3e
a0
b4
c1
e8
0
0
40
1b
4f
14
c1
e8
0
0
41
2b
d
d8
c1
e8
0
0
41
50
4c
fe
c1
e8
0
0
41
36
ec
9d
c1
e8
0
0
c1
e8
0
0
c1
e8
0
0
c1
e8
0
0
c1
e8
0
0
c1
e8
0
0
c1
e8
0
0
41
1e
6c
8
c1
e8
0
0
41
21
36
21
41
14
b0
3d
41
17
c5
59
c1
e8
0
0
40
e3
d8
77
c1
e8
0
0
40
3e
a3
9e
41
67
70
db
41
4f
1f
7e
c1
e8
0
0
c1
e8
0
0
c1
e8
0
0
41
2f
2e
27
c1
e8
0
0
c1
e8
0
0
41
18
54
13
c1
e8
0
0
c1
e8
0
0
c1
e8
0
0
c1
e8
0
0
c1
e8
0
0
40
8c
31
cb
c1
e8
0
0
c0
52
9c
2c
41
6
d5
8d
c1
e8
0
0
c1
e8
0
0
41
61
8d
12
c1
e8
0
0
41
43
3b
e1
c1
e8
0
0
c1
e8
0
0
40
b
da
16
40
e9
e2
c5
41
51
7a
6e
c1
e8
0
0
41
81
44
17
c1
e8
0
0
41
4b
b6
ef
c1
e8
0
0
41
0
5f
6
c1
e8
0
0
c1
e8
0
0
c1
e8
0
0
c1
e8
0
0
c1
e8
0
0
c1
e8
0
0
41
24
9c
ea
41
41
e0
87
41
7
25
7c
41
e
74
1d
c1
e8
0
0
c1
e8
0
0
40
5c
e5
78
41
0
a7
b4
c1
e8
0
0
c1
e8
0
0
c1
e8
0
0
c1
e8
0
0
c1
e8
0
0
c1
e8
0
0
41
64
a9
40
c1
e8
0
0
c1
e8
0
0
c1
e8
0
0
c1
e8
0
0
c1
e8
0
0
40
af
5d
d3
c1
e8
0
0
c1
e8
0
0
c1
e8
0
0
c1
e8
0
0
c1
e8
0
0
c1
e8
0
0
41
4e
f
28
41
5b
d5
c7
c1
e8
0
0
41
0
1f
eb
c1
e8
0
0
41
4c
70
fb
c0
57
c
98
40
f1
69
91
c1
e8
0
0
41
6a
0
d1
c1
e8
0
0
c1
e8
0
0
41
27
7a
a6
c1
e8
0
0
c1
e8
0
0
c1
e8
0
0
c1
e8
0
0
40
cf
6d
67
40
e2
23
aa
c1
e8
0
0
c1
e8
0
0
40
f8
ea
1d
c1
e8
0
0
41
35
20
b2
c1
e8
0
0
c1
e8
0
0
41
34
91
ec
c1
e8
0
0
c1
e8
0
0
c1
e8
0
0
40
ea
60
11
c1
e8
0
0
c1
e8
0
0
c1
e8
0
0
41
38
fd
2e
41
27
16
80
c1
e8
0
0
c1
e8
0
0
41
1d
92
99
c1
e8
0
0
c1
e8
0
0
40
5c
9a
25
c1
e8
0
0
c1
e8
0
0
41
19
a3
15
c1
e8
0
0
c1
e8
0
0
c1
e8
0
0
41
35
a2
46
c1
e8
0
0
c1
e8
0
0
41
86
9d
9f
c1
e8
0
0
41
d
a7
9d
c1
e8
0
0
41
34
e5
43
c1
e8
0
0
41
2b
c1
96
c1
e8
0
0
41
20
82
90
c1
e8
0
0
c1
e8
0
0
41
68
41
15
41
38
8b
3e
41
19
b8
dd
c1
e8
0
0
c1
e8
0
0
41
30
64
df
41
2c
dc
56
c1
e8
0
0
40
bb
e4
30
c1
e8
0
0
c1
e8
0
0
c1
e8
0
0
41
14
99
45
c1
e8
0
0
c1
e8
0
0
c1
e8
0
0
c1
e8
0
0
c1
e8
0
0
c1
e8
0
0
40
a8
f6
23
c0
ff
11
64
c1
e8
0
0
3f
60
13
7f
c1
e8
0
0
c1
e8
0
0
41
36
45
9
3f
e1
b
a8
40
80
4d
49
c1
e8
0
0
c1
e8
0
0
41
25
8b
31
c1
e8
0
0
41
36
c6
3d
c1
e8
0
0
41
14
95
e0
c1
e8
0
0
41
37
78
35
c1
e8
0
0
41
23
44
60
41
2c
dd
d8
c1
e8
0
0
41
3c
f0
e0
41
3f
85
cd
41
45
63
c2
41
25
12
e8
c1
e8
0
0
41
61
72
28
c1
e8
0
0
41
16
8f
e6
41
63
b6
58
c1
e8
0
0
41
20
1c
f8
40
f0
53
bf
c1
e8
0
0
41
22
f3
63
c1
e8
0
0
c1
e8
0
0
c1
e8
0
0
41
14
7f
cb
c1
e8
0
0
41
3
fb
38
c1
e8
0
0
bd
76
7b
5c
41
67
94
36
c1
e8
0
0
41
2e
a8
ee
c1
e8
0
0
c1
e8
0
0
c1
e8
0
0
c1
e8
0
0
c1
e8
0
0
41
6c
13
1
41
d3
d8
5f
41
ef
71
43
42
1
d0
ee
42
a
e1
57
42
11
1c
8b
42
17
9
6a
42
1c
f
5
42
20
9f
18
42
23
c9
2b
42
25
c6
2
42
27
9f
35
42
28
c6
c8
42
2a
4c
7a
42
2b
43
b3
42
2c
b
4e
42
2c
89
20
42
2d
5c
4c
42
2d
f0
26
42
2e
76
57
42
2e
76
35
42
2f
2d
b5
42
2f
41
a3
42
2f
a0
e6
42
2f
c9
c
42
30
1e
51
42
2f
d6
61
42
30
6e
1a
42
30
80
bb
42
30
9b
33
42
30
b6
4c
42
30
64
f5
42
30
c0
68
42
30
9b
1c
42
30
d3
d9
42
30
fa
bc
42
30
e6
f7
42
30
ea
25
42
30
ca
34
42
30
f6
68
42
30
ef
cb
42
30
f8
6f
42
30
c7
cf
42
30
de
72
42
30
d0
d8
42
30
ab
a4
42
30
bf
db
42
30
a4
97
42
30
c1
85
42
30
d4
40
42
30
ba
65
42
30
bc
d8
42
30
7b
28
42
30
76
c6
42
30
d2
fd
42
30
65
12
42
30
5e
eb
42
30
5b
b1
42
30
33
82
42
30
52
ef
42
30
7a
9f
42
2f
fc
e6
42
30
30
d6
42
30
3e
f4
42
30
45
d3
42
30
35
c
42
30
2d
41
42
2f
e5
d1
42
30
1e
6a
42
2f
d3
8e
42
2f
ef
bc
42
2f
e1
c4
42
2f
e3
4b
42
2f
c2
db
42
2f
ee
65
42
2f
95
7b
42
2f
ba
e1
42
2f
99
fb
42
2f
86
af
42
2f
92
2c
42
2f
b9
7
42
2f
b4
8
42
2f
b4
19
42
2f
72
62
42
2f
93
c1
42
2f
74
35
42
2f
78
6b
42
2f
54
4b
42
2f
27
79
42
2f
46
e0
42
2f
62
b5
42
2f
5e
d4
42
2f
3f
90
42
2f
5b
b1
42
2f
2e
41
42
2f
66
68
42
2f
34
27
42
2f
4b
df
42
2f
15
3a
42
2f
2d
6f
42
2f
10
85
42
2f
3c
e2
42
2e
e3
8e
42
2f
33
60
42
2e
fb
18
42
2e
eb
3
42
2e
db
c9
42
2e
f6
73
42
2e
f2
69
42
2e
f3
84
42
2e
ea
e7
42
2e
eb
59
42
2e
d3
4
42
2f
7
39
42
2e
bb
7d
42
2e
d0
98
42
2e
da
f2
42
2e
96
c
42
2e
c2
12
42
2e
b1
2e
42
2e
aa
86
42
2e
78
c8
42
2e
9a
c0
42
2e
d7
38
42
2e
82
d3
42
2e
98
26
42
2e
79
8c
42
2e
85
97
42
2e
60
f0
42
2e
6f
ee
42
2e
8d
54
42
2e
44
99
42
2e
59
49
42
2e
76
7e
42
2e
5a
65
42
2e
9a
f
42
2e
5c
b7
42
2e
5e
f6
42
2e
76
b8
42
2e
60
a0
42
2e
3b
18
42
2e
8c
a1
42
2e
5c
5d
42
2e
33
48
42
2e
83
b
42
2e
f
8a
42
2e
4d
3b
42
2e
42
7a
42
2e
5e
ad
42
2e
3f
cb
42
2e
23
d9
42
2e
69
9b
42
2d
f7
58
42
2e
2c
7e
42
2e
33
28
42
2e
22
ad
42
2e
3d
e5
42
2d
fd
88
42
2e
2a
30
42
2e
28
ed
42
2d
dd
94
42
2e
36
6e
42
2e
1e
56
42
2d
f9
86
42
2e
29
cf
42
2e
20
55
42
2d
e5
e8
42
2d
f7
e5
42
2e
20
1a
42
2e
33
5c
42
2d
f3
74
42
2d
c8
6c
42
2d
d5
36
42
2d
d1
85
42
2d
c1
53
42
2d
d5
e6
42
2d
ec
b7
42
2d
e1
1a
42
2d
da
e3
42
2d
e4
b4
42
2d
f2
40
42
2d
97
e6
42
2d
9d
6
42
2d
bc
99
42
2d
9f
5c
42
2d
ea
f4
42
2d
d7
1a
42
2d
d9
a9
42
2d
8c
54
42
2e
8
f3
42
2d
d8
82
42
2d
7a
56
42
2d
d4
ee
42
2d
9b
13
42
2d
ea
c8
42
2d
aa
bd
42
2d
d5
6e
42
2d
53
d1
42
2d
b8
d6
42
2d
f5
ff
42
2d
ca
b7
42
2d
83
ff
42
2d
af
a3
42
2d
96
2a
42
2d
b7
5c
42
2d
ee
10
42
2d
a0
1a
42
2d
9c
f
42
2d
c8
a
42
2d
ec
a5
42
2d
c5
9b
42
2d
c2
24
42
2d
96
6d
42
2d
d0
a1
42
2d
ad
f
42
2d
b3
9d
42
2d
b1
6e
42
2d
a0
b8
