c2
4
39
bd
c2
8a
0
0
c2
8a
0
0
c2
8a
0
0
c2
8a
0
0
c2
8a
0
0
c2
8a
0
0
c2
5
ec
42
c1
da
1f
3c
c1
d9
e5
8f
c2
d
fa
49
c1
da
32
bf
c2
1a
13
b2
c2
8a
0
0
c2
8a
0
0
c2
8a
0
0
c2
8a
0
0
c2
8a
0
0
c2
8a
0
0
c1
f3
db
33
c2
15
38
e9
c2
8a
0
0
c1
e2
86
56
c1
ec
d7
7d
c2
8a
0
0
c2
8a
0
0
c2
8a
0
0
c2
8a
0
0
c2
8a
0
0
c1
d1
d5
66
c1
f1
b7
70
c2
8a
0
0
c2
8a
0
0
c1
ec
83
10
c1
cb
18
2c
c2
8a
0
0
c2
8a
0
0
c2
a
9e
4e
c2
8a
0
0
c2
19
c2
4d
c2
8a
0
0
c2
8a
0
0
c1
e6
87
aa
c2
5
11
16
c2
2
ad
c5
c2
8a
0
0
c1
fd
25
3
c1
da
19
f4
c2
8a
0
0
c2
19
ab
43
c2
2
c9
1c
c2
8a
0
0
c2
3
d
9b
c2
1b
76
24
c2
8a
0
0
c2
8a
0
0
c2
8a
0
0
c2
8a
0
0
c2
8a
0
0
c2
2
61
d0
c1
ee
7e
55
c2
8a
0
0
c2
4b
ea
2e
c2
8a
0
0
c2
8a
0
0
c2
8a
0
0
c2
8a
0
0
c2
8a
0
0
c1
dd
1d
c1
c2
4e
86
bf
c2
b
4f
a5
c2
16
55
5c
c2
8a
0
0
c1
f5
3d
7c
c2
8a
0
0
c1
f9
2
a3
c2
19
e4
d8
c2
8a
0
0
c2
28
fb
13
c2
8a
0
0
c2
8a
0
0
c2
8a
0
0
c2
14
be
61
c1
e2
a7
f0
c2
8a
0
0
c2
8a
0
0
c2
0
83
cb
c2
8a
0
0
c2
8a
0
0
c2
4a
5e
a5
c2
6
ea
19
c2
0
19
2b
c1
f1
fd
41
c1
f1
6f
e4
c1
dd
56
1a
c2
8a
0
0
c1
e0
6d
0
c1
e2
be
58
c2
8a
0
0
c2
8a
0
0
c2
8a
0
0
c2
8a
0
0
c1
ee
58
db
c1
ee
8a
e4
c1
f3
9c
e0
c1
e2
f0
1d
c2
8a
0
0
c1
d8
ef
9e
c1
f7
2f
76
c1
f2
7
c9
c1
eb
43
84
c2
b
ee
45
c1
d2
ae
ff
c2
16
ab
5a
c2
8a
0
0
c2
e
a1
94
c2
8a
0
0
c2
8a
0
0
c1
f6
2e
ed
c1
e3
a2
e0
c2
8a
0
0
c2
8a
0
0
c2
8a
0
0
c2
8a
0
0
c1
e0
49
13
c1
e9
14
1a
c2
8a
0
0
c1
e5
15
f3
c1
e2
0
c1
c1
d6
1f
24
c2
8a
0
0
c1
fd
50
e7
c1
df
70
d0
c2
8a
0
0
c2
8a
0
0
c1
fc
6a
da
c1
ef
6f
23
c2
8
3a
34
c2
8a
0
0
c2
8a
0
0
c2
8a
0
0
c2
8a
0
0
c2
8a
0
0
c2
7
80
bc
c2
8a
0
0
c2
8a
0
0
c1
f4
9d
7f
c2
8a
0
0
c2
8a
0
0
c2
a
51
e5
c2
8a
0
0
c2
8a
0
0
c2
8a
0
0
c1
dc
4d
d
c1
cc
b3
ad
c2
9
8
d5
c2
17
c2
73
c1
e8
cb
4a
c1
d0
22
b6
c1
c7
3d
6c
c2
8a
0
0
c1
f2
35
8f
c2
8a
0
0
c1
ff
af
db
c2
8a
0
0
c2
8a
0
0
c2
8a
0
0
c2
5
aa
68
c2
8a
0
0
c2
8a
0
0
c2
1a
af
3f
c2
8a
0
0
c2
1a
37
36
c1
e3
cf
3d
c1
e7
4e
34
c2
8a
0
0
c2
8a
0
0
c2
8a
0
0
c1
fc
24
95
c1
dd
4f
e6
c1
e3
50
29
c1
e6
d8
ec
c2
8a
0
0
c1
e3
d3
e7
c2
8a
0
0
c2
8a
0
0
c1
da
92
90
c2
8a
0
0
c2
8a
0
0
c2
0
7b
c8
c1
e2
2e
f5
c2
1d
cc
61
c2
b
8c
75
c2
8a
0
0
c2
9
d8
1a
c1
f6
7
a9
c2
8a
0
0
c2
8a
0
0
c1
d9
67
e
c1
dc
c7
df
c2
8a
0
0
c2
6
6
16
c2
0
61
c
c2
8a
0
0
c2
29
c1
6f
c2
8a
0
0
c2
8a
0
0
c1
f8
43
cc
c2
0
1b
c6
c2
8a
0
0
c2
8a
0
0
c1
da
52
b0
c1
ee
7e
55
c2
8a
0
0
c2
8a
0
0
c2
11
ea
b
c1
e6
5f
ca
c2
0
8e
7b
c2
8a
0
0
c2
8a
0
0
c2
8a
0
0
c2
8a
0
0
c2
8a
0
0
c2
0
d5
a9
c2
8a
0
0
c2
8a
0
0
c2
8a
0
0
c2
4
22
90
c2
8a
0
0
c2
8a
0
0
c1
ea
5f
bd
c1
f7
cb
41
c2
8a
0
0
c2
8a
0
0
c2
4
18
a3
c1
e9
9f
c3
c1
eb
23
d6
c1
ee
db
42
c1
e8
5b
77
c1
f3
b
5b
c2
8a
0
0
c2
a
2c
c
c1
fa
64
93
c1
cf
2a
75
c1
cb
ee
1b
c1
f2
86
d6
c2
8a
0
0
c1
fb
26
69
c1
d8
f1
53
c1
df
aa
b9
c2
46
6a
6d
c1
e4
a0
d7
c2
8a
0
0
c2
8a
0
0
c2
2c
d8
28
c2
8a
0
0
c2
8a
0
0
c2
6
a8
5b
c2
8a
0
0
c2
2d
41
38
c1
d3
13
c2
c1
ec
fe
fc
c2
8a
0
0
c1
ec
88
f8
c2
60
ba
5a
c2
6
2b
5b
c1
fe
8c
9a
c1
f9
29
66
c2
1
42
29
c1
f5
6b
c7
c2
4
ee
28
c1
ef
1e
c7
c1
d9
e3
cf
c2
8a
0
0
c2
8a
0
0
c2
21
1b
fe
c1
f9
fa
4f
c2
8a
0
0
c1
b5
34
33
c1
8b
78
d9
c1
5e
1b
31
c2
8a
0
0
40
97
17
62
41
2f
29
3b
41
52
a3
75
41
5a
c7
40
41
5f
14
8c
41
5f
c8
53
41
5e
7e
8b
41
5c
76
4
41
59
6c
69
41
53
d7
79
41
4a
6d
8f
41
3c
22
78
41
2a
ae
57
41
1b
ab
13
41
10
46
19
41
6
e1
c8
40
fd
15
6f
40
ed
ad
9e
40
df
d6
7
40
d2
53
5
40
c5
dd
d9
40
b9
35
95
40
ac
d2
5e
40
a1
83
be
40
97
a0
68
40
8b
5e
9e
40
80
ea
e2
40
71
81
3b
40
61
13
e2
40
56
46
3c
40
50
7b
3c
40
47
75
3b
40
3f
e
6c
40
3a
72
3a
40
38
55
ed
40
32
de
cd
40
2c
83
3c
40
2d
ba
9d
40
28
41
aa
40
28
2d
e6
40
23
a6
25
40
21
e2
27
40
22
db
a2
40
23
89
ff
40
1f
ff
6
40
1d
f
7
40
20
5b
6d
40
1e
f3
c0
40
1b
f3
6e
40
1a
e
60
40
18
ba
b8
40
1a
73
5
40
1c
ca
a4
40
1a
a0
a4
40
19
29
17
40
18
cc
eb
40
1a
4e
96
40
19
27
dc
40
17
37
19
40
17
b3
1
40
15
a3
8c
40
17
92
a
40
17
a9
e8
40
18
c9
83
40
15
e4
58
40
17
27
2e
40
14
a1
2c
40
17
5d
a0
40
15
34
78
40
14
16
2c
40
17
19
90
40
13
96
b0
40
17
25
e1
40
13
93
8d
40
15
ca
28
40
13
af
d1
40
12
bb
e3
40
14
2d
46
40
12
43
f1
40
17
2c
dd
40
19
da
55
40
17
80
fd
40
19
e5
96
40
16
db
f5
40
13
ca
f
40
11
99
cc
40
13
20
47
40
11
e4
31
40
15
a6
27
40
14
f3
43
40
12
85
d0
40
10
10
aa
40
13
2a
c3
40
18
b3
3b
40
16
a3
66
40
11
4a
15
40
10
a1
85
40
13
18
57
40
18
86
1e
40
13
97
bc
40
12
e
4b
40
14
b0
d
40
15
21
fc
40
16
64
98
40
15
4f
92
40
11
5a
5a
40
15
cf
13
40
13
ef
13
40
13
b6
1f
40
14
51
a7
40
12
4e
f3
40
12
d4
74
40
e
50
b6
40
10
97
dc
40
10
85
ff
40
12
8
46
40
16
de
32
40
14
9b
67
40
11
a5
4d
40
10
6a
ef
40
11
9a
e
40
11
a9
c
40
10
7
b4
40
10
ea
70
40
13
6d
c2
40
15
86
c4
40
12
f9
a4
40
12
79
aa
40
11
cf
cc
40
14
64
d3
40
15
d2
24
40
12
53
7a
40
12
49
1b
40
12
10
f7
40
12
7
f8
40
16
88
3f
40
14
e8
d9
40
f
18
a4
40
f
91
e0
40
13
6c
11
40
13
db
6c
40
13
59
b0
40
13
e6
cf
40
12
22
dd
40
14
3e
23
40
14
ca
6b
40
f
46
dc
40
11
95
64
40
14
24
40
40
12
c1
c4
40
10
69
56
40
14
3
9f
40
11
46
de
40
13
d5
f8
40
14
25
86
40
14
54
bc
40
17
71
b9
40
12
74
78
40
13
bc
3c
40
10
b6
c
40
12
17
5a
40
13
89
d9
40
13
5
41
40
13
94
b0
40
15
4
67
40
13
0
8d
40
13
a2
48
40
12
80
c
40
10
c6
85
40
14
30
7c
40
11
f3
b1
40
f
26
a3
40
12
fa
b
40
14
63
54
40
11
e1
93
40
10
99
62
40
13
dc
73
40
14
70
bd
40
14
39
5
40
14
ae
dc
40
11
97
9d
40
11
86
34
40
12
79
d1
40
12
ad
43
40
16
d8
24
40
14
96
2
40
12
9
f6
40
14
99
bc
40
12
ba
7
40
12
a6
48
40
14
42
47
40
15
2e
77
40
13
0
8d
40
16
4e
10
40
16
6f
7
40
14
5b
9d
40
11
5c
c8
40
12
dd
8a
40
13
6a
ab
40
11
11
84
40
13
98
7f
40
14
6e
61
40
14
cd
27
40
13
41
5c
40
14
44
98
40
16
f2
e5
40
16
81
38
40
13
62
ec
40
15
5e
35
40
14
23
8
40
11
fe
7a
40
12
dd
d5
40
15
6f
38
40
15
3c
9b
40
11
56
48
40
12
8b
7f
40
13
4e
1d
40
16
47
3e
40
18
2
95
