c1
e8
0
0
c1
e8
0
0
c1
e8
0
0
c1
e8
0
0
c1
e8
0
0
c1
e8
0
0
41
45
bc
c8
c1
e8
0
0
c1
e8
0
0
c1
e8
0
0
3c
ae
fa
90
c1
e8
0
0
41
50
8c
ca
41
42
fb
25
40
ed
99
31
41
46
ba
57
c1
e8
0
0
c1
e8
0
0
c1
e8
0
0
c1
e8
0
0
41
55
ee
fa
c1
e8
0
0
41
62
89
7e
41
32
c5
f5
40
18
3d
20
40
ef
cc
95
c1
e8
0
0
40
20
da
97
c1
e8
0
0
40
d1
32
87
c1
e8
0
0
41
8
b4
dd
41
15
b0
aa
c1
e8
0
0
c1
e8
0
0
41
21
34
41
41
93
c5
d0
41
b4
87
e5
41
ce
18
79
41
e2
79
98
41
f4
80
bd
42
2
2c
a9
42
8
e7
de
42
d
b4
77
42
10
f4
f4
42
13
30
29
42
14
dc
54
42
16
c6
c
42
18
18
8f
42
19
2d
98
42
1a
1e
ac
42
1b
8
c2
42
1b
c6
82
42
1c
6c
c0
42
1c
dd
9e
42
1d
50
45
42
1d
ce
cc
42
1e
39
32
42
1e
96
fa
42
1e
d1
9
42
1f
d
74
42
1f
41
2
42
1f
79
15
42
1f
ae
dd
42
1f
b7
bd
42
1f
c7
6
42
1f
f7
1c
42
20
12
15
42
20
3d
2f
42
20
6f
4a
42
20
66
c4
42
20
7a
a3
42
20
86
45
42
20
8d
e1
42
20
91
d
42
20
93
c3
42
20
8d
fc
42
20
82
36
42
20
b7
e0
42
20
b7
1c
42
20
9e
b
42
20
9d
e9
42
20
a2
7c
42
20
98
3
42
20
8f
e6
42
20
88
71
42
20
ab
1d
42
20
98
68
42
20
92
ac
42
20
85
43
42
20
70
d3
42
20
90
34
42
20
88
65
42
20
69
d0
42
20
41
2f
42
20
48
63
42
20
3a
d6
42
20
20
c8
42
20
30
6
42
20
28
f1
42
20
28
11
42
20
3b
52
42
20
39
59
42
20
1f
16
42
20
e
12
42
20
8
2
42
1f
dd
69
42
20
1
18
42
20
3
e0
42
1f
e0
a7
42
1f
e5
63
42
1f
d2
24
42
1f
c7
f3
42
1f
b9
26
42
1f
ca
3e
42
1f
e9
9e
42
1f
bb
c7
42
1f
b0
16
42
1f
aa
12
42
1f
ab
7b
42
1f
a6
2e
42
1f
a2
c8
42
1f
85
82
42
1f
70
59
42
1f
83
98
42
1f
84
cc
42
1f
7a
ca
42
1f
82
57
42
1f
77
18
42
1f
60
1c
42
1f
72
34
42
1f
5e
68
42
1f
42
ec
42
1f
43
f7
42
1f
48
91
42
1f
4c
cf
42
1f
34
a1
42
1f
2f
32
42
1f
23
f3
42
1f
32
73
42
1f
3e
fb
42
1f
17
5a
42
1e
fe
85
42
1e
e9
50
42
1f
e
89
42
1f
21
c6
42
1f
16
76
42
1e
f6
6c
42
1e
ec
8f
42
1e
e5
d3
42
1e
ee
f1
42
1e
e4
b0
42
1e
d5
d2
42
1e
ec
98
42
1e
dd
a2
42
1e
b6
e8
42
1e
9f
65
42
1e
98
a4
42
1e
b9
43
42
1e
d9
f
42
1e
b4
eb
42
1e
b3
42
42
1e
b1
8e
42
1e
a5
20
42
1e
88
67
42
1e
99
37
42
1e
c2
f3
42
1e
ac
3a
42
1e
89
90
42
1e
9c
ca
42
1e
a2
32
42
1e
7e
cf
42
1e
9c
64
42
1e
87
5a
42
1e
84
78
42
1e
90
c7
42
1e
85
92
42
1e
75
2
42
1e
61
da
42
1e
51
6b
42
1e
3d
aa
42
1e
64
58
42
1e
6e
7b
42
1e
4e
d6
42
1e
3e
47
42
1e
48
9b
42
1e
5b
c1
42
1e
54
f6
42
1e
53
10
42
1e
2e
8d
42
1e
18
3b
42
1e
3d
af
42
1e
39
93
42
1e
34
12
42
1e
2a
71
42
1e
2b
35
42
1e
38
20
42
1e
39
fa
42
1e
26
b9
42
1e
16
d4
42
1e
1f
be
42
1e
26
c3
42
1e
3e
56
42
1e
40
16
42
1e
45
ab
42
1e
29
a8
42
1e
12
fa
42
1e
2a
ce
42
1e
25
3e
42
1e
17
d6
42
1e
d
95
42
1e
9
d4
42
1e
b
6f
42
1e
b
c2
42
1d
f9
ae
42
1e
15
fa
42
1d
fe
ae
42
1d
f2
dd
42
1d
e2
d4
42
1d
ca
27
42
1e
e
5f
42
1e
18
2
42
1d
dd
63
42
1d
f2
6e
42
1e
8
53
42
1d
f8
7
42
1e
0
2d
42
1e
12
65
42
1e
8
d1
42
1d
ee
b
42
1d
ec
9a
42
1d
fc
1b
42
1e
1c
5a
42
1e
1c
95
42
1e
1c
f9
42
1e
b
f
42
1d
f8
e1
42
1e
4
6f
42
1e
1d
70
42
1e
1b
d6
42
1d
ee
5b
42
1d
f9
5b
42
1d
f6
be
42
1d
ff
b7
42
1e
14
56
42
1e
27
2d
42
1e
20
22
42
1e
3
a1
42
1e
24
4c
42
1e
23
33
42
1e
10
1d
42
1e
a
c5
42
1e
28
ca
42
1e
21
6e
42
1e
5
a5
42
1e
10
1d
42
1d
ff
e9
42
1e
6
9e
42
1e
19
b0
42
1e
14
29
42
1e
b
ac
42
1e
23
b1
42
1e
1f
c5
42
1e
0
92
42
1e
11
c2
42
1e
14
5d
42
1e
24
6b
42
1e
3e
c0
42
1e
22
9c
42
1e
3
db
42
1e
16
16
42
1e
27
33
42
1e
2c
90
42
1e
c
79
42
1e
22
6b
42
1e
46
10
42
1e
27
6a
42
1e
19
34
42
1e
1d
2c
42
1e
f
41
42
1e
16
f8
42
1e
1d
c0
42
1e
32
5e
42
1e
32
c6
42
1e
f
1c
42
1e
3
bb
42
1e
e
da
42
1e
c
bd
42
1e
23
6f
42
1e
2e
86
42
1e
12
5c
42
1e
37
8b
42
1e
32
99
42
1e
13
3f
42
1e
b
98
42
1e
2d
2
42
1e
2a
47
42
1e
2e
39
42
1e
45
57
42
1e
28
32
42
1e
31
e7
42
1e
4e
d8
42
1e
4b
73
42
1e
30
19
42
1e
34
78
42
1e
56
63
42
1e
41
25
42
1e
41
e8
42
1e
5d
3f
42
1e
2a
30
42
1e
17
3f
42
1e
25
de
42
1e
26
de
42
1e
35
6
42
1e
34
96
42
1e
24
8e
42
1e
19
df
42
1d
fe
f8
42
1e
3
a0
42
1e
19
bc
42
1e
d
58
42
1e
c
a6
42
1e
31
57
42
1e
c
38
42
1e
10
e9
42
1e
26
e2
42
1e
22
23
42
1e
43
4
42
1e
47
14
42
1e
4b
ae
42
1e
3b
d
42
1e
25
a0
42
1e
47
39
42
1e
39
b9
42
1e
26
ba
42
1e
33
e6
42
1e
3e
88
42
1e
34
1d
42
1e
2c
7e
42
1e
24
38
42
1e
13
2d
42
1e
24
5f
42
1e
2e
ce
42
1e
1d
fd
42
1e
3c
a5
42
1e
2e
a1
42
1e
24
b6
42
1e
25
74
42
1e
1f
79
42
1e
22
80
42
1e
16
12
42
1e
22
c
42
1e
40
54
42
1e
33
67
42
1e
27
3b
42
1e
29
f0
42
1e
2c
bf
42
1e
41
ab
42
1e
33
55
42
1e
30
3a
42
1e
54
2
42
1e
46
1e
42
1e
22
d6
42
1e
20
4e
42
1e
27
98
42
1e
33
c7
42
1e
31
b2
42
1e
46
5b
42
1e
30
f9
42
1e
2f
14
42
1e
30
9f
42
1e
36
cb
42
1e
24
5f
42
1e
f
ed
42
1e
18
97
42
1e
51
b5
42
1e
58
e8
42
1e
41
65
42
1e
35
e6
42
1e
3f
58
42
1e
52
9f
42
1e
37
3e
42
1e
31
5
42
1e
33
8d
42
1e
24
3b
42
1e
24
dd
42
1e
1a
14
42
1e
1f
e7
42
1e
2a
bf
42
1e
4d
db
42
1e
41
5b
42
1e
2b
a3
42
1e
22
5b
42
1e
3d
e
42
1e
56
c9
42
1e
53
8f
42
1e
3e
b1
42
1e
31
c9
42
1e
3f
a0
42
1e
47
5
42
1e
50
8c
42
1e
4b
ce
42
1e
31
44
42
1e
2e
9a
42
1e
49
7c
42
1e
46
cf
42
1e
4d
1e
42
1e
35
67
42
1e
4b
bc
42
1e
60
45
42
1e
49
4d
42
1e
52
7f
42
1e
56
7d
42
1e
5b
c1
42
1e
60
ed
42
1e
55
75
42
1e
60
15
42
1e
70
7e
42
1e
59
e8
42
1e
46
3e
42
1e
47
17
42
1e
54
96
42
1e
41
5b
42
1e
5d
e5
42
1e
87
ab
42
1e
78
d3
42
1e
74
71
42
1e
64
26
42
1e
67
23
42
1e
64
dc
42
1e
4c
81
42
1e
4b
12
42
1e
59
85
42
1e
72
34
42
1e
5c
fc
42
1e
59
8c
42
1e
60
24
42
1e
59
c1
42
1e
52
36
42
1e
5d
3e
42
1e
63
87
42
1e
64
8d
42
1e
65
62
42
1e
49
88
42
1e
48
cb
42
1e
5d
55
42
1e
67
68
42
1e
64
17
42
1e
60
38
42
1e
49
48
42
1e
5d
2c
42
1e
61
5a
42
1e
4d
54
42
1e
4b
3
42
1e
4f
75
42
1e
4d
6f
42
1e
5d
45
42
1e
75
75
42
1e
7e
ae
42
1e
62
5d
42
1e
42
b2
42
1e
3c
d2
42
1e
49
1d
42
1e
64
e6
42
1e
68
64
42
1e
56
87
42
1e
46
db
42
1e
42
9c
42
1e
47
a3
42
1e
64
9e
42
1e
44
ab
42
1e
66
ec
42
1e
71
e3
42
1e
67
3c
42
1e
7c
84
42
1e
5e
a0
42
1e
3c
2d
42
1e
58
c3
42
1e
58
e8
42
1e
34
61
42
1e
39
f2
42
1e
27
4c
42
1e
36
63
42
1e
51
43
42
1e
46
be
42
1e
45
22
42
1e
49
ca
42
1e
5e
b0
42
1e
54
ac
42
1e
4c
bb
42
1e
62
51
42
1e
46
ed
42
1e
46
23
42
1e
35
e6
42
1e
2e
b2
42
1e
53
b2
42
1e
68
6b
42
1e
42
79
42
1e
31
7e
42
1e
45
b9
42
1e
36
56
